/* XPM */
/* C:\Program Files\Picasa2\Picasa2.exe */
static char *icon[] = {
"48 48 66 2",
"00 c #FFFFFF",
"07 c #808080",
"08 c #C0DCC0",
"09 c #A6CAF0",
"0B c #2A3FFF",
"0F c #2A5FFF",
"18 c #2ABF00",
"19 c #2ABF55",
"1C c #2ADF00",
"1D c #2ADF55",
"20 c #2AFF00",
"33 c #555FFF",
"37 c #557FFF",
"3D c #55BF55",
"41 c #55DF55",
"45 c #55FF55",
"53 c #7F3FFF",
"57 c #7F5FFF",
"5B c #7F7FFF",
"5E c #7F9FAA",
"5F c #7F9FFF",
"61 c #7FBF55",
"65 c #7FDF55",
"66 c #7FDFAA",
"69 c #7FFF55",
"7B c #AA5FFF",
"7F c #AA7FFF",
"82 c #AA9FAA",
"83 c #AA9FFF",
"86 c #AABFAA",
"87 c #AABFFF",
"8A c #AADFAA",
"8E c #AAFFAA",
"A6 c #D49FAA",
"A7 c #D49FFF",
"A9 c #D4BF55",
"AA c #D4BFAA",
"AB c #D4BFFF",
"AE c #D4DFAA",
"AF c #D4DFFF",
"B2 c #D4FFAA",
"B3 c #D4FFFF",
"B6 c #FF1F00",
"B7 c #FF1F55",
"BB c #FF3F55",
"BE c #FF5F00",
"BF c #FF5F55",
"C2 c #FF7F00",
"C3 c #FF7F55",
"C4 c #FF7FAA",
"C7 c #FF9F55",
"C8 c #FF9FAA",
"CB c #FFBF55",
"CC c #FFBFAA",
"CD c #FFBFFF",
"D0 c #FFDFAA",
"D1 c #FFDFFF",
"D4 c #CCCCFF",
"D5 c #FFCCFF",
"E2 c #00BF00",
"E6 c #00DF00",
"F3 c #2A1FFF",
"F6 c #FFFBF0",
"F7 c #A0A0A4",
"F9 c #FF0000",
"   c None",
"                                                                                                ",
"                                          F600F6F6F6F6F6F6AF                                    ",
"                                    F6F600000000000000000000F6AF82                              ",
"                                F6000000F6D0C8C4C4BFC3C3C8D1F600000807                          ",
"                            00000000D1A6BFBBBFBFBFBFBFBBBBBFCC00D000F6F7                        ",
"                          00000000CCBFBFBFBFBFBFBFBBBBBBBBBFC800BECC00F686                      ",
"                        F600000000C8BBBBBBBBBBBBBBBBBBBBBBBBC800BEC2A6F6F6F7                    ",
"                      F60000D5D50000C8BBBBBBBBBBBBBBBBBBBBBBC800BEBEC2CBF6AF07                  ",
"                    000000ABA7A7CD0000C8BBBBBBBBBBBBBBBBBBBBC800BEBEC2C2CCF60807                ",
"                  000000D5A7A7A7A7A7D100CCBFBBBBBBBBBBBBBBBBC800BEBEC2C2C7D0F607                ",
"                000000ABA7A7A7A77F7F7FD400D5BFBBB7B7B7B7B7BBC800BEBEC2C2C2C7F60807              ",
"                0000D1A7A7A7A77F7F7F7B7FD400D1BFB6B6B6B6B6B7C800BEBEC2C2C2C7D0F607              ",
"              0000F6A7A7A7A7A77F7F7B7B577B8300F6C4B6B6B6B6B6C800BEBEC2C2C2C7CBF68207            ",
"              F600ABA7A7A7A77F7F7F7B57575383000000C8B6B6B6B6C800BEBEC2C2C2C7C7F6AF07            ",
"            0000D1A7A7A7A77F7F7F7B7B57537BD100000000C8B7B6B6C800BEBEC2C2C2C7C7CCF607            ",
"            F600D5A7A7A7837F7F7B7B575757AF000000000000CCB7F9C800BEBEC2C2C2C7C7CCF60707          ",
"          000000A7A7A7A77F7F7B7B575753AB0000000000000000CCBFC800BEBEC2C2C2C7C7C7F68207          ",
"          F600D5A7A7A77F7F7F7B5757538300000000000000000000F6D000BEBEC2C2C2C7C7C7F60807          ",
"          00F6A7A7A7837F7F7B7B57577FD100000000000000000000000000BEBEC2C2C2C7C7C7D00807          ",
"        0000F6A7A7A77F7F7F7B575757AB0000000000000000000000000000BEBEC2C2C2C7C7C7D00807          ",
"        0000D1A7A7837F7F7B7B5757AB0000000000000000000000000000F6BEBEC2C2C2C7C7C7D00807          ",
"        F600ABA7837F7F7B7B5757A7000000000000000000000000000000F6BEBEC2C2C2C7C7C7D00807          ",
"        F600A7A77F7F7F7B7B577FD1000000000000000000000000000000F6BEBEC2C2C2C7C7C7D00807          ",
"        F600A7837F7F7B7B577BAF00000000000000000000000000000000F6BEBEC2C2C2C7C7C7F60807          ",
"        F600837F7F7B7B577BAB000000000000000000000000000000000000BEBEC2C2C2C7C7C7F6F707          ",
"        F6007F7F7F7B5757A700AFF600000000000000000000000000000000BEBEC2C2C2C7C7CBF60707          ",
"        F6007F7F7B7B577F00095BF600000000000000000000000000000000BEBEC2C2C2C7C7CCF60707          ",
"        F6007F7F7B577FAFF60FF3F6000000000000000000000000000000F6BEBEC2C7C7A9AEF6F60707          ",
"        F6007F7B577BAB005EF3F3AF000000000000000000000000000000F6AEAAD0F60000F6008607            ",
"        F6007F7B7BA700090B0BF3AF000000000000000000000000000000000000B3088A3D3DF60707            ",
"        AF00837B7F00D40B0B0BF3AF0000000000000000000000000008088A653D19E2E2E261AF0707            ",
"        0800A77BAF00370B0B0BF3AF0000000000000000F6088A663D1918E2E2E2E2E2E218088607              ",
"        8200D1AB00090F0B0B0BF3AF00000000F6088A653D19E2E2E2E2E2E2E2E2E2E2E261F60707              ",
"          F6000009370F0B0B0BF3AF008A663D3D18E2E2E2E2E2E2E2E2E2E2E2E2E2E21808860707              ",
"          0800AF37330F0B0B0BF3080018E2E2E2E2E2E2E2E2E2E2E2E2E2E2E2E6E6E666F60707                ",
"          82F6AF0F0F0F0B0B0BF30800E2E2E2E2E2E2E2E2E2E2E2E2E6E6E6E6E2E21DF68207                  ",
"            AF005F0F0F0B0B0BF3080018E2E2E2E2E2E2E2E6E6E6E6E2E2E2E2E61C08080707                  ",
"            08F6AF0F0F0B0B0BF3080018E2E2E6E6E6E6E6E2E2E2E2E6E6E6E61C8AF60707                    ",
"              0800870B0B0B0BF30800E6E6E6E2E2E2E2E2E6E6E6E6E6E6E6E666F6F707                      ",
"              F7AF005F0B0B0BF30800E2E2E2E6E6E6E6E6E6E6E6E6E6E61C8EF6F70707                      ",
"                82F6005F0B0BF308001CE6E6E6E6E6E6E6E6E6E6E6E61D08F6F70707                        ",
"                  82F600090BF38A001DE6E6E6E6E6E6E6E61C1C1C69F6F6070707                          ",
"                    F7F600AF0B8A001DE6E6E61C1C1C1C202045B200080707                              ",
"                      0708000000F6411C1C202020204569B200F6F70707                                ",
"                        0707AFF60000B3B2B2B2B2F6F6F6AFF7070707                                  ",
"                            07070808F6000000F6AF86070707                                        ",
"                                  0707070707070707                                              ",
"                                                                                                "};
